<?xml version="1.0" encoding="UTF-8"?>
<svg width="52px" height="35px" viewBox="0 0 52 35" version="1.1" xmlns="http://www.w3.org/2000/svg" xmlns:xlink="http://www.w3.org/1999/xlink">
    <!-- Generator: Sketch 49.3 (51167) - http://www.bohemiancoding.com/sketch -->
    <title>Slice 1</title>
    <desc>Created with Sketch.</desc>
    <defs></defs>
    <g id="Page-1" stroke="none" stroke-width="1" fill="none" fill-rule="evenodd">
        <path d="M19.4039072,37.1880503 L16.6997382,40.0660377 C15.4784945,41.3742204 14.5189602,42.2735825 13.8211067,42.7641509 C13.1232531,43.2547194 12.5029482,43.5 11.9601732,43.5 C10.8358536,43.5 9.97808815,43.0312416 9.38685112,42.0937107 C8.79561408,41.1561798 8.5,39.79351 8.5,38.0056604 C8.5,36.5448564 8.93615192,33.307153 9.80846886,28.2924528 C10.2930894,25.5234662 10.6710877,23.3322932 10.9424752,21.7188679 L12.1346357,14.3603774 C12.8906437,9.58551072 13.4770258,5.71552845 13.8937994,2.75031447 C14.3105731,-0.214899522 14.5189567,-2.01362367 14.5189567,-2.64591195 C14.5189567,-3.34360936 14.3735728,-3.85597321 14.0828005,-4.18301887 C13.7920282,-4.51006453 13.3364917,-4.67358491 12.7161774,-4.67358491 C12.5998685,-4.67358491 12.3672541,-4.66268355 12.0183274,-4.6408805 C11.6694006,-4.61907746 11.3883249,-4.6081761 11.1750919,-4.6081761 L11.0006294,-6.40691824 C12.2606427,-6.60314564 13.6466366,-6.87022892 15.1586526,-7.2081761 C16.6706687,-7.54612328 18.4443531,-7.97672694 20.4797593,-8.5 C18.3668139,3.38265899 16.6367446,13.5972319 15.2894995,22.1440252 C13.9422545,30.6908184 13.2686421,35.5310216 13.2686421,36.6647799 C13.2686421,37.2752651 13.3704108,37.7603756 13.5739515,38.1201258 C13.7774921,38.479876 14.0537216,38.6597484 14.4026484,38.6597484 C14.6158814,38.6597484 14.8969571,38.5398335 15.2458839,38.3 C15.5948107,38.0601665 16.0212703,37.6895203 16.5252757,37.1880503 L18.5025175,35.3893082 L19.4039072,37.1880503 Z M30.9140275,37.1880503 L28.2098585,40.0660377 C26.9886148,41.3742204 26.0290806,42.2735825 25.331227,42.7641509 C24.6333735,43.2547194 24.0130685,43.5 23.4702935,43.5 C22.3459739,43.5 21.4882085,43.0312416 20.8969715,42.0937107 C20.3057344,41.1561798 20.0101203,39.79351 20.0101203,38.0056604 C20.0101203,36.5448564 20.4462723,33.307153 21.3185892,28.2924528 C21.8032097,25.5234662 22.181208,23.3322932 22.4525955,21.7188679 L23.6447561,14.3603774 C24.4007641,9.58551072 24.9871461,5.71552845 25.4039197,2.75031447 C25.8206934,-0.214899522 26.0290771,-2.01362367 26.0290771,-2.64591195 C26.0290771,-3.34360936 25.8836931,-3.85597321 25.5929208,-4.18301887 C25.3021485,-4.51006453 24.846612,-4.67358491 24.2262978,-4.67358491 C24.1099888,-4.67358491 23.8773745,-4.66268355 23.5284477,-4.6408805 C23.1795209,-4.61907746 22.8984453,-4.6081761 22.6852122,-4.6081761 L22.5107497,-6.40691824 C23.7707631,-6.60314564 25.156757,-6.87022892 26.668773,-7.2081761 C28.180789,-7.54612328 29.9544735,-7.97672694 31.9898797,-8.5 C29.8769342,3.38265899 28.1468649,13.5972319 26.7996199,22.1440252 C25.4523748,30.6908184 24.7787624,35.5310216 24.7787624,36.6647799 C24.7787624,37.2752651 24.8805312,37.7603756 25.0840718,38.1201258 C25.2876124,38.479876 25.563842,38.6597484 25.9127687,38.6597484 C26.1260018,38.6597484 26.4070775,38.5398335 26.7560042,38.3 C27.104931,38.0601665 27.5313907,37.6895203 28.035396,37.1880503 L30.0126378,35.3893082 L30.9140275,37.1880503 Z M42.4241478,37.1880503 L39.7199789,40.0660377 C38.4987351,41.3742204 37.5392009,42.2735825 36.8413474,42.7641509 C36.1434938,43.2547194 35.5231889,43.5 34.9804139,43.5 C33.8560943,43.5 32.9983288,43.0312416 32.4070918,42.0937107 C31.8158548,41.1561798 31.5202407,39.79351 31.5202407,38.0056604 C31.5202407,36.5448564 31.9563926,33.307153 32.8287095,28.2924528 C33.3133301,25.5234662 33.6913284,23.3322932 33.9627159,21.7188679 L35.1548764,14.3603774 C35.9108844,9.58551072 36.4972664,5.71552845 36.9140401,2.75031447 C37.3308137,-0.214899522 37.5391974,-2.01362367 37.5391974,-2.64591195 C37.5391974,-3.34360936 37.3938134,-3.85597321 37.1030411,-4.18301887 C36.8122688,-4.51006453 36.3567324,-4.67358491 35.7364181,-4.67358491 C35.6201092,-4.67358491 35.3874948,-4.66268355 35.038568,-4.6408805 C34.6896413,-4.61907746 34.4085656,-4.6081761 34.1953326,-4.6081761 L34.02087,-6.40691824 C35.2808834,-6.60314564 36.6668773,-6.87022892 38.1788933,-7.2081761 C39.6909093,-7.54612328 41.4645938,-7.97672694 43.5,-8.5 C41.3870545,3.38265899 39.6569852,13.5972319 38.3097402,22.1440252 C36.9624952,30.6908184 36.2888827,35.5310216 36.2888827,36.6647799 C36.2888827,37.2752651 36.3906515,37.7603756 36.5941921,38.1201258 C36.7977328,38.479876 37.0739623,38.6597484 37.4228891,38.6597484 C37.6361221,38.6597484 37.9171978,38.5398335 38.2661246,38.3 C38.6150513,38.0601665 39.041511,37.6895203 39.5455163,37.1880503 L41.5227582,35.3893082 L42.4241478,37.1880503 Z" id="lll" fill="#000000" transform="translate(26.000000, 17.500000) rotate(-270.000000) translate(-26.000000, -17.500000) "></path>
    </g>
</svg>